{
  "product": "IQPlus Card",
  "company": "IQPlus",
  "license": "LICENSE",
  "upgrade-code": "b2ed19f3-ffd2-4bc1-8b8e-35f119c22aa4",
  "files": {
    "guid": "e5cf3395-0861-4172-8466-87d6c16d0d6f",
    "items": [
      "iqpluscard.exe"
    ]
  },
  "directories": [
    "resource"
  ],
  "env": {
    "guid": "fce4b8b5-7c0d-4681-8192-1cd8d0ca1a3d",
    "vars": [
      {
        "name": "PATH",
        "value": "[INSTALLDIR]",
        "permanent": "no",
        "system": "no",
        "action": "set",
        "part": "last"
      }
    ]
  },
  "shortcuts": {
    "guid": "48f95eb7-9eb5-4bb6-b685-7107da41bbdb",
    "items": [
      {
        "name": "IQPlus Card",
        "description": "Thai ID Card reader for IQPlus webapp",
        "target": "[INSTALLDIR]\\iqpluscard.exe",
        "wdir": "INSTALLDIR",
        "arguments": "",
        "icon": ""
	  }
    ]
  },
  "choco": {
    "description": "Thai ID Card reader for IQPlus webapp",
    "project-url": "https://bitbucket.org/iqplus/iqpluscard",
    "tags": "smartcard web",
    "license-url": "https://bitbucket.org/iqplus/iqpluscard/blob/master/LICENSE"
  }
}